{
  "web": {
    "client_id": "1073985485921-3sskn8as78ta8slf4bed9j7sl9otjfu9.apps.googleusercontent.com",
    "project_id": "bashroom-administration",
    "auth_uri": "https://accounts.google.com/o/oauth2/auth",
    "token_uri": "https://oauth2.googleapis.com/token",
    "auth_provider_x509_cert_url": "https://www.googleapis.com/oauth2/v1/certs",
    "client_secret": "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",
    "redirect_uris": [
      "http://localhost:8080/callback"
    ],
    "javascript_origins": [
      "http://localhost:8080",
      "http://localhost"
    ]
  }
}